<svg width="367" height="367" viewBox="0 0 367 367" fill="none" xmlns="http://www.w3.org/2000/svg">
<path fill-rule="evenodd" clip-rule="evenodd" d="M169.298 279.39C167.548 277.86 166.519 275.67 166.439 273.35C166.359 271.02 167.249 268.77 168.899 267.13C180.289 255.72 204.238 231.77 204.238 231.77C207.398 228.6 211.689 226.83 216.169 226.83C221.159 226.83 225.348 228.76 228.508 231.92C231.668 235.08 233.448 239.64 233.448 244.11C233.448 248.58 231.668 252.87 228.508 256.04C231.418 253.12 235.799 251.1 240.439 251.1C245.069 251.1 249.348 252.76 252.818 256.24C256.388 259.8 257.718 264.34 257.718 268.38C257.718 272.85 255.938 277.14 252.778 280.3L251.899 281.18C233.779 299.24 195.758 302.8 169.298 279.39Z" fill="white"/>
<path fill-rule="evenodd" clip-rule="evenodd" d="M144.75 260.15L135.15 250.54C101.81 217.2 101.81 163.15 135.15 129.81L191.4 73.5595C194.62 70.3395 199.839 70.3395 203.059 73.5595L213.71 84.2094C246.47 116.969 246.47 170.09 213.71 202.85L156.409 260.15C153.189 263.37 147.97 263.37 144.75 260.15ZM172.279 163.17C181.789 172.68 197.209 172.68 206.719 163.17C216.229 153.66 216.229 138.239 206.719 128.729C197.209 119.219 181.789 119.219 172.279 128.729C162.769 138.239 162.769 153.66 172.279 163.17Z" fill="white"/>
</svg>
