<?xml version="1.0" encoding="UTF-8"?>
<svg width="319px" height="512px" viewBox="0 0 319 512" version="1.1" xmlns="http://www.w3.org/2000/svg" xmlns:xlink="http://www.w3.org/1999/xlink">
    <title>Pleroma</title>
    <g id="All-Fediverse-Symbols" stroke="none" stroke-width="1" fill="none" fill-rule="evenodd">
        <g id="Pleroma" transform="translate(-97.000000, 0.000000)" fill="#000000">
            <path d="M134.342105,0 L226,0 L226,512 L97,512 L97,37.2980132 C97,16.6988893 113.71863,0 134.342105,0 Z M287,387 L416,387 L416,474.837838 C416,495.361933 399.28137,512 378.657895,512 L287,512 L287,387 Z M287,0 L416,0 L416,216.746667 C416,237.321115 399.28137,254 378.657895,254 L287,254 L287,0 Z"></path>
        </g>
    </g>
</svg>