<?xml version="1.0" encoding="UTF-8"?>
<svg width="512px" height="355px" viewBox="0 0 512 355" version="1.1" xmlns="http://www.w3.org/2000/svg" xmlns:xlink="http://www.w3.org/1999/xlink">
    <title>WriteFreely</title>
    <g id="All-Fediverse-Symbols" stroke="none" stroke-width="1" fill="none" fill-rule="evenodd">
        <g id="WriteFreely" transform="translate(0.000000, -83.000000)" fill="#000000" fill-rule="nonzero">
            <path d="M495.431935,293.435148 C487.920395,313.76051 478.420513,332.649873 466.93229,350.103235 C455.443953,367.556598 442.298702,382.800648 427.496538,395.835385 C412.69426,408.870235 396.566496,419.14343 379.113246,426.65497 C361.880798,433.945595 343.654178,437.590908 324.433387,437.590908 C316.479906,437.590908 308.305567,436.375822 299.91037,433.945652 C291.735975,431.515368 284.224378,427.207256 277.375582,421.021315 C270.7477,414.614347 265.334959,406.10858 261.137361,395.504014 C256.939763,384.678533 254.840963,371.091454 254.840963,354.742776 C254.840963,348.777749 255.172391,342.260381 255.835247,335.19067 L254.510101,335.19067 C249.870561,348.446321 243.463593,361.260144 235.289197,373.632138 C227.335829,386.004132 218.167319,396.94007 207.783667,406.439952 C197.400015,415.939946 186.132649,423.562 173.981569,429.306111 C162.051404,434.829309 149.900324,437.590908 137.52833,437.590908 C124.272679,437.590908 113.115827,435.271194 104.057774,430.631767 C95.2206351,425.992227 88.040467,419.695716 82.5172695,411.742235 C76.994072,403.567952 73.0173314,394.178528 70.5870476,383.573962 C68.1568769,372.748481 66.9417915,361.260201 66.9417915,349.109121 C66.9417915,331.213929 67.8255054,312.545481 69.5929331,293.103776 C71.5812752,273.662071 73.6800744,254.883109 75.8893307,236.76689 C78.0985871,218.650785 80.0869292,201.970735 81.8543569,186.726742 C83.842812,171.261721 84.8370396,158.668756 84.8370396,148.947847 C84.8370396,144.750248 84.6158991,140.773564 84.173618,137.017794 C83.953043,133.04111 83.1797863,129.616712 81.8538479,126.7446 C80.5283619,123.872487 78.650477,121.552717 76.2201932,119.785289 C73.7900225,118.017862 70.476138,117.134148 66.2785395,117.134148 C62.5226567,117.134148 58.545916,118.34929 54.3483176,120.779573 C50.1507192,122.98883 45.9530642,126.7446 41.7553527,132.046883 C37.7786686,137.128252 33.8019845,143.866591 29.8253004,152.261901 C25.8486163,160.657098 22.2033037,170.819779 18.8893626,182.749944 L-3.69482223e-13,178.773317 C1.54640028,170.819835 4.30799902,161.430355 8.28479623,150.604874 C12.4823947,139.558479 18.0055921,129.06437 24.8543887,119.122546 C31.9240996,108.959809 40.4298667,100.454042 50.37169,93.605245 C60.5343146,86.5355341 72.4644234,83 86.1620166,83 C104.057208,83 117.644287,88.6343899 126.923255,99.9018123 C136.423249,111.169122 141.173247,127.5178 141.173247,148.947847 C141.173247,158.88967 140.731531,170.157036 139.8481,182.749944 C138.964669,195.121938 137.749584,208.046275 136.202844,221.522954 C134.877245,234.999519 133.441189,248.697056 131.894675,262.615563 C130.348162,276.313156 128.801705,289.458407 127.255305,302.051315 C125.929706,314.42331 124.825021,325.690675 123.941251,335.853413 C123.05782,346.016151 122.616104,354.300947 122.616104,360.707802 C122.616104,365.789171 123.05782,370.760082 123.941251,375.620537 C124.824682,380.480991 126.371195,384.789103 128.580791,388.544873 C130.790047,392.300643 133.77256,395.393613 137.52833,397.823784 C141.284213,400.254068 146.03421,401.46921 151.778322,401.46921 C166.359573,401.46921 180.719909,396.166926 194.85933,385.56236 C208.998752,374.957794 221.591661,359.60323 232.638056,339.498669 C243.905478,319.394221 252.963587,294.76069 259.812384,265.598076 C266.882095,236.214661 270.41695,202.854505 270.41695,165.517609 C270.41695,153.808358 270.085522,141.767735 269.422666,129.395741 C268.75981,116.802833 267.544725,103.878496 265.77741,90.6227319 L323.771153,90.6227319 C324.213435,92.611074 324.544863,95.0413013 324.765438,97.9134137 C325.207719,100.564612 325.539147,103.326211 325.759722,106.19821 C325.980297,109.070322 326.090584,111.942378 326.090584,114.814378 C326.311159,117.465576 326.421447,119.564432 326.421447,121.110945 C326.421447,143.866591 325.206305,165.738523 322.776021,186.726742 C320.566765,207.493932 318.02608,227.377466 315.153968,246.377342 C312.281968,265.156304 309.630827,283.161953 307.200543,300.394288 C304.991287,317.626737 303.886658,333.975472 303.886658,349.440492 C303.886658,356.068375 304.328374,362.585743 305.211805,368.992598 C306.316942,375.399566 308.194827,381.033277 310.84546,385.893732 C313.717459,390.754073 317.583686,394.730757 322.44414,397.823784 C327.525509,400.695896 334.042934,402.131953 341.996416,402.131953 C353.042811,402.131953 364.089206,399.812183 375.135601,395.172642 C386.40291,390.312188 397.117933,383.573905 407.280671,374.957794 C417.443409,366.34157 426.83289,356.068375 435.449114,344.138209 C444.286253,332.208044 451.908249,319.062793 458.315104,304.702457 C464.942986,290.121207 470.024355,274.656242 473.559211,258.307564 C477.31498,241.737859 479.192865,224.615867 479.192865,206.94159 C479.192865,198.325366 478.640297,189.930112 477.535159,181.75583 C476.430022,173.581434 474.662595,165.959381 472.232876,158.88967 C469.802592,151.819959 466.378194,145.744419 461.959681,140.663051 C457.76197,135.360767 452.570144,131.384083 446.384203,128.732998 C443.733005,134.698024 439.866778,139.006137 434.785523,141.657335 C429.704154,144.30842 424.291357,145.633962 418.547132,145.633962 C415.454218,145.633962 412.250791,145.081394 408.93685,143.976256 C405.622909,142.87225 402.529882,141.104823 399.657769,138.673973 C397.006684,136.243803 394.797428,133.261289 393.03,129.726434 C391.262573,125.970664 390.378859,121.552095 390.378859,116.470726 C390.378859,112.714956 391.041658,108.848729 392.367257,104.872045 C393.913658,100.895248 396.233371,97.3603927 399.326398,94.267479 C402.419425,90.9535379 406.506623,88.3023963 411.587991,86.3140542 C416.890275,84.1046847 423.407643,83 431.140097,83 C444.83769,83 456.767855,86.203484 466.930593,92.6104519 C477.093218,99.0174198 485.488471,107.633644 492.116353,118.459125 C498.744236,129.284605 503.715147,141.877514 507.029088,156.23785 C510.343029,170.598186 512,185.842236 512,201.97 C512,216.993192 510.563944,232.347756 507.691831,248.033691 C505.040746,263.498598 500.953548,278.632191 495.430238,293.434469 L495.431935,293.435148 Z"></path>
        </g>
    </g>
</svg>